#FIG 3.2
Landscape
Center
Inches
Letter  
100.00
Single
-2
1200 2
2 3 0 2 0 7 50 0 -1 0.000 0 0 -1 0 0 5
	 1500 3000 300 4200 2700 4200 3900 3000 1500 3000
2 1 0 2 0 7 50 0 -1 0.000 0 0 -1 1 0 2
	1 0 1.00 90.00 180.00
	 2100 3600 2100 0
2 1 0 2 0 7 50 0 -1 0.000 0 0 -1 1 0 2
	1 0 1.00 90.00 180.00
	 2100 3600 4800 2700
3 2 0 2 0 7 50 0 -1 0.000 0 0 0 3
	 300 4200 1865 610 3900 3000
	 0.000 -1.000 0.000
3 2 0 2 0 7 50 0 -1 0.000 0 0 0 3
	 1500 3000 2160 625 2700 4200
	 0.000 -1.000 0.000
4 0 0 50 0 0 12 0.0000 4 90 90 4650 3000 x\001
4 0 0 50 0 0 12 0.0000 4 180 525 3150 1200 y=1-x2\001
4 0 0 50 0 0 12 0.0000 4 135 90 2250 300 y\001
4 0 0 50 0 0 12 0.0000 4 135 90 1800 3750 0\001
