%!PS-Adobe-2.0 EPSF-2.0
%%Title: quadro-parede.fig
%%Creator: fig2dev Version 3.2 Patchlevel 5a
%%CreationDate: Sun Aug 22 14:33:21 2010
%%BoundingBox: 0 0 322 138
%Magnification: 1.0000
%%EndComments
%%BeginProlog
/$F2psDict 200 dict def
$F2psDict begin
$F2psDict /mtrx matrix put
/col-1 {0 setgray} bind def
/col0 {0.000 0.000 0.000 srgb} bind def
/col1 {0.000 0.000 1.000 srgb} bind def
/col2 {0.000 1.000 0.000 srgb} bind def
/col3 {0.000 1.000 1.000 srgb} bind def
/col4 {1.000 0.000 0.000 srgb} bind def
/col5 {1.000 0.000 1.000 srgb} bind def
/col6 {1.000 1.000 0.000 srgb} bind def
/col7 {1.000 1.000 1.000 srgb} bind def
/col8 {0.000 0.000 0.560 srgb} bind def
/col9 {0.000 0.000 0.690 srgb} bind def
/col10 {0.000 0.000 0.820 srgb} bind def
/col11 {0.530 0.810 1.000 srgb} bind def
/col12 {0.000 0.560 0.000 srgb} bind def
/col13 {0.000 0.690 0.000 srgb} bind def
/col14 {0.000 0.820 0.000 srgb} bind def
/col15 {0.000 0.560 0.560 srgb} bind def
/col16 {0.000 0.690 0.690 srgb} bind def
/col17 {0.000 0.820 0.820 srgb} bind def
/col18 {0.560 0.000 0.000 srgb} bind def
/col19 {0.690 0.000 0.000 srgb} bind def
/col20 {0.820 0.000 0.000 srgb} bind def
/col21 {0.560 0.000 0.560 srgb} bind def
/col22 {0.690 0.000 0.690 srgb} bind def
/col23 {0.820 0.000 0.820 srgb} bind def
/col24 {0.500 0.190 0.000 srgb} bind def
/col25 {0.630 0.250 0.000 srgb} bind def
/col26 {0.750 0.380 0.000 srgb} bind def
/col27 {1.000 0.500 0.500 srgb} bind def
/col28 {1.000 0.630 0.630 srgb} bind def
/col29 {1.000 0.750 0.750 srgb} bind def
/col30 {1.000 0.880 0.880 srgb} bind def
/col31 {1.000 0.840 0.000 srgb} bind def

end

/cp {closepath} bind def
/ef {eofill} bind def
/gr {grestore} bind def
/gs {gsave} bind def
/sa {save} bind def
/rs {restore} bind def
/l {lineto} bind def
/m {moveto} bind def
/rm {rmoveto} bind def
/n {newpath} bind def
/s {stroke} bind def
/sh {show} bind def
/slc {setlinecap} bind def
/slj {setlinejoin} bind def
/slw {setlinewidth} bind def
/srgb {setrgbcolor} bind def
/rot {rotate} bind def
/sc {scale} bind def
/sd {setdash} bind def
/ff {findfont} bind def
/sf {setfont} bind def
/scf {scalefont} bind def
/sw {stringwidth} bind def
/tr {translate} bind def
/tnt {dup dup currentrgbcolor
  4 -2 roll dup 1 exch sub 3 -1 roll mul add
  4 -2 roll dup 1 exch sub 3 -1 roll mul add
  4 -2 roll dup 1 exch sub 3 -1 roll mul add srgb}
  bind def
/shd {dup dup currentrgbcolor 4 -2 roll mul 4 -2 roll mul
  4 -2 roll mul srgb} bind def
 /DrawEllipse {
	/endangle exch def
	/startangle exch def
	/yrad exch def
	/xrad exch def
	/y exch def
	/x exch def
	/savematrix mtrx currentmatrix def
	x y tr xrad yrad sc 0 0 1 startangle endangle arc
	closepath
	savematrix setmatrix
	} def

/$F2psBegin {$F2psDict begin /$F2psEnteredState save def} def
/$F2psEnd {$F2psEnteredState restore end} def

/pageheader {
save
newpath 0 138 moveto 0 0 lineto 322 0 lineto 322 138 lineto closepath clip newpath
-135.3 261.5 translate
1 -1 scale
$F2psBegin
10 setmiterlimit
0 slj 0 slc
 0.06299 0.06299 sc
} bind def
/pagefooter {
$F2psEnd
restore
} bind def
%%EndProlog
pageheader
%
% Fig objects follow
%
% 
% here starts figure with depth 50
% Ellipse
7.500 slw
n 7065 3240 101 101 0 360 DrawEllipse gs col0 s gr

% Polyline
0 slj
0 slc
n 7065 3330 m
 7065 3690 l gs col7 1.00 shd ef gr gs col0 s gr 
% Polyline
n 6975 3825 m 7065 3690 l
 7155 3825 l gs col0 s gr 
% Polyline
n 6885 3420 m
 7245 3420 l gs col0 s gr 
% Polyline
n 2250 3150 m
 2475 3150 l gs col0 s gr 
% Polyline
n 6476 4140 m 6484 4140 l gs col0 s gr
% Polyline
gs  clippath
6796 3930 m 6645 3930 l 6645 3990 l 6796 3990 l 6796 3990 l 6676 3960 l 6796 3930 l cp
eoclip
n 7110 3960 m
 6660 3960 l gs col0 s gr gr

% arrowhead
n 6796 3930 m 6676 3960 l 6796 3990 l 6796 3930 l  cp gs 0.00 setgray ef gr  col0 s
% Polyline
n 2340 1980 m 6975 3150 l
 2475 3150 l gs col0 s gr 
% Polyline
n 2295 2475 m
 2295 3825 l gs col7 1.00 shd ef gr gs col0 s gr 
% Polyline
15.000 slw
n 2295 3825 m
 7020 3825 l gs col0 s gr 
% Polyline
2 slj
7.500 slw
n 6258 2980 m 6255 2980 l 6248 2979 l 6238 2979 l 6225 2979 l 6210 2979 l
 6195 2980 l 6181 2982 l 6167 2986 l 6155 2992 l 6145 3001 l
 6138 3013 l 6136 3028 l 6138 3044 l 6144 3059 l 6151 3074 l
 6161 3089 l 6171 3104 l 6181 3118 l 6190 3130 l 6198 3139 l
 6203 3144 l
 6205 3147 l gs col0 s gr 
% here ends figure;
% 
% here starts figure with depth 48
% Polyline
0 slj
0 slc
7.500 slw
n 2265 1980 m 2160 1980 2160 3045 105 arcto 4 {pop} repeat
  2160 3150 2325 3150 105 arcto 4 {pop} repeat
  2430 3150 2430 2085 105 arcto 4 {pop} repeat
  2430 1980 2265 1980 105 arcto 4 {pop} repeat
 cp gs col14 1.00 shd ef gr gs col0 s gr 
% here ends figure;
pagefooter
showpage
%%Trailer
%EOF
