#FIG 3.2  Produced by xfig version 3.2.5b
Landscape
Center
Metric
A4      
100.00
Single
-2
1200 2
6 6885 3105 7245 3825
1 3 0 1 0 7 50 -1 -1 0.000 1 0.0000 7065 3240 101 101 7065 3240 7110 3330
2 1 0 1 0 7 50 -1 20 0.000 0 0 -1 0 0 2
	 7065 3330 7065 3690
2 1 0 1 0 7 50 -1 -1 0.000 0 0 -1 0 0 3
	 6975 3825 7065 3690 7155 3825
2 1 0 1 0 7 50 -1 -1 0.000 0 0 -1 0 0 2
	 6885 3420 7245 3420
-6
2 1 0 1 0 7 50 -1 -1 0.000 0 0 -1 0 0 2
	 2250 3150 2475 3150
2 1 0 1 0 7 50 -1 -1 0.000 0 0 -1 0 0 1
	 6480 4140
2 1 0 1 0 7 50 -1 -1 0.000 0 0 -1 1 0 2
	1 1 1.00 60.00 120.00
	 7110 3960 6660 3960
2 1 0 1 0 7 50 -1 -1 0.000 0 0 -1 0 0 3
	 2340 1980 6975 3150 2475 3150
2 1 0 1 0 7 50 -1 20 0.000 0 0 -1 0 0 2
	 2295 2475 2295 3825
2 1 0 2 0 7 50 -1 -1 0.000 0 0 -1 0 0 2
	 2295 3825 7020 3825
2 4 0 1 0 14 48 -1 20 0.000 0 0 7 0 0 5
	 2430 3150 2160 3150 2160 1980 2430 1980 2430 3150
3 2 0 1 0 7 50 -1 -1 0.000 0 0 0 3
	 6258 2980 6138 3013 6205 3147
	 0.000 -1.000 0.000
