#FIG 3.2  Produced by xfig version 3.2.5b
Landscape
Center
Metric
A4      
100.00
Single
-2
1200 2
2 1 0 3 0 7 50 -1 -1 0.000 0 0 -1 0 0 4
	 4725 2700 4725 3600 6300 3600 6300 2700
2 1 0 1 0 7 50 -1 -1 0.000 0 0 -1 0 0 2
	 6300 3600 7425 2025
2 1 0 1 0 7 50 -1 -1 0.000 0 0 -1 0 0 2
	 4725 3600 5850 2025
2 1 0 3 0 7 50 -1 -1 0.000 0 0 -1 0 0 2
	 4725 2700 5850 1125
2 1 0 3 0 7 50 -1 -1 0.000 0 0 -1 0 0 4
	 5850 1125 5850 2025 7425 2025 7425 1125
2 1 0 3 0 7 50 -1 -1 0.000 0 0 -1 0 0 2
	 6300 2700 7425 1125
2 1 0 1 0 7 50 -1 -1 0.000 0 0 -1 0 0 2
	 1350 675 1350 3600
2 1 0 1 0 7 50 -1 -1 0.000 0 0 -1 0 0 2
	 2925 675 2925 3600
2 2 0 3 0 7 50 -1 -1 0.000 0 0 -1 0 0 5
	 675 675 3600 675 3600 3600 675 3600 675 675
2 1 0 1 0 7 50 -1 -1 0.000 0 0 -1 0 0 2
	 3600 4050 675 4050
2 1 0 1 0 7 50 -1 -1 0.000 0 0 -1 0 0 2
	 675 3825 675 4275
2 1 0 1 0 7 50 -1 -1 0.000 0 0 -1 0 0 2
	 3600 3825 3600 4275
3 0 0 3 0 7 50 -1 -1 0.000 0 1 0 3
	1 1 1.00 195.00 210.00
	 3825 1575 4725 675 5400 1350
	 0.000 1.000 0.000
4 0 0 50 -1 0 12 0.0000 4 135 120 1800 4275 L\001
