#FIG 3.2  Produced by xfig version 3.2.5b
Landscape
Center
Metric
A4      
100.00
Single
-2
1200 2
1 3 0 2 0 7 50 -1 -1 0.000 1 0.0000 3300 1740 1575 1575 3300 1740 4875 1740
1 2 0 1 0 7 50 -1 -1 0.000 1 0.0000 3292 2145 1507 225 1785 2370 4800 1920
2 1 0 1 0 7 50 -1 -1 0.000 0 0 -1 0 0 3
	 1800 2145 3330 165 4815 2160
