#FIG 3.2  Produced by xfig version 3.2.5b
Landscape
Center
Metric
A4      
100.00
Single
-2
1200 2
2 1 0 3 0 7 50 -1 -1 0.000 0 0 -1 0 0 3
	 2475 1125 2475 3150 5625 3150
2 1 0 3 0 7 50 -1 -1 0.000 0 0 -1 0 0 3
	 3375 1125 3375 2700 5625 2700
2 1 0 1 0 7 50 -1 -1 0.000 0 0 -1 0 0 2
	 2475 1575 3724 3165
2 1 0 1 0 7 50 -1 -1 0.000 0 0 -1 0 0 2
	 2484 2145 4058 3159
2 1 0 1 0 7 50 -1 -1 0.000 0 0 -1 0 0 2
	 2484 2532 5564 3145
2 1 0 1 0 7 50 -1 -1 0.000 0 0 -1 0 0 2
	 2484 1185 3618 3159
2 1 0 1 0 7 50 -1 -1 0.000 0 0 -1 0 0 2
	 5850 2700 5850 3150
2 1 0 1 0 7 50 -1 -1 0.000 0 0 -1 0 0 2
	 5760 2700 5940 2700
2 1 0 1 0 7 50 -1 -1 0.000 0 0 -1 0 0 2
	 5760 3150 5940 3150
2 1 0 1 0 7 50 -1 -1 0.000 0 0 -1 0 0 2
	 2475 900 3375 900
2 1 0 1 0 7 50 -1 -1 0.000 0 0 -1 0 0 2
	 2475 765 2475 1035
2 1 0 1 0 7 50 -1 -1 0.000 0 0 -1 0 0 2
	 3375 765 3375 1035
4 0 0 50 -1 0 12 0.0000 4 135 105 5940 2991 b\001
4 0 0 50 -1 0 12 0.0000 4 90 90 2853 1083 a\001
