#FIG 3.2  Produced by xfig version 3.2.5b
Landscape
Center
Metric
A4      
100.00
Single
-2
1200 2
0 32 #9c0000
0 33 #8c8c8c
0 34 #8c8c8c
0 35 #424242
0 36 #8c8c8c
0 37 #424242
0 38 #8c8c8c
0 39 #424242
0 40 #8c8c8c
0 41 #424242
0 42 #8c8c8c
0 43 #424242
0 44 #dd9d93
0 45 #f1ece0
0 46 #c3c3c3
0 47 #e2c8a8
0 48 #e1e1e1
0 49 #d2d2d2
0 50 #ededed
0 51 #da7a1a
0 52 #f1e41a
0 53 #887dc2
0 54 #b0a193
0 55 #837cdd
0 56 #d6d6d6
0 57 #8c8ca5
0 58 #4a4a4a
0 59 #8c6b6b
0 60 #5a5a5a
0 61 #636363
0 62 #8e8e8e
0 63 #b79b73
0 64 #4193ff
0 65 #bf703b
0 66 #db7700
0 67 #dab800
0 68 #006400
0 69 #5a6b3b
0 70 #d3d3d3
0 71 #aaaaaa
0 72 #8e8ea4
0 73 #f3b95d
0 74 #89996b
0 75 #646464
0 76 #b7e6ff
0 77 #86c0ec
0 78 #bdbdbd
0 79 #d39552
0 80 #98d2fe
0 81 #616161
0 82 #aeb2ae
0 83 #717171
0 84 #ff9a00
0 85 #8c9c6b
0 86 #f76b00
0 87 #5a6b39
0 88 #8c9c6b
0 89 #8c9c7b
0 90 #184a18
0 91 #adadad
0 92 #f7bd5a
0 93 #636b9c
0 94 #f7f7f7
0 95 #de0000
0 96 #adadad
0 97 #f7bd5a
0 98 #adadad
0 99 #f7bd5a
0 100 #636b9c
0 101 #526b29
0 102 #949494
0 103 #006300
0 104 #00634a
0 105 #7b844a
0 106 #e7bd7b
0 107 #a5b5c6
0 108 #6b6b94
0 109 #846b6b
0 110 #529c4a
0 111 #d6e7e7
0 112 #526363
0 113 #186b4a
0 114 #9ca5b5
0 115 #ff9400
0 116 #ff9400
0 117 #000000
0 118 #f73829
0 119 #000000
0 120 #ffff52
0 121 #52794a
0 122 #639a5a
0 123 #c66142
0 124 #e76942
0 125 #ff7952
0 126 #dedede
0 127 #f3eed3
0 128 #f5ae5d
0 129 #95ce99
0 130 #b5157d
0 131 #eeeeee
0 132 #848484
0 133 #7b7b7b
0 134 #005a00
0 135 #e77373
0 136 #ffcb31
0 137 #29794a
0 138 #de2821
0 139 #2159c6
0 140 #f8f8f8
0 141 #e6e6e6
0 142 #63737b
0 143 #21845a
0 144 #c2c2c2
0 145 #6e6e6e
0 146 #444444
0 147 #8e8f8e
0 148 #aeaeae
0 149 #333333
0 150 #949395
0 151 #747075
0 152 #555555
0 153 #b3b3b3
0 154 #6d6d6d
0 155 #454545
0 156 #e2e2ee
0 157 #94949a
0 158 #dbdbdb
0 159 #a1a1b7
0 160 #e0e0e0
0 161 #86acff
0 162 #7070ff
5 1 0 3 0 7 50 -1 -1 0.000 0 1 0 0 7830.000 2250.000 6750 1800 6660 2250 6750 2700
2 1 0 3 0 7 50 -1 -1 0.000 0 0 -1 0 0 3
	 6750 1800 7875 2250 6750 2700
3 2 0 1 0 7 50 -1 -1 0.000 0 0 0 3
	 7641 2150 7504 2235 7601 2355
	 0.000 -1.000 0.000
4 0 0 50 -1 32 12 0.0000 4 135 105 7336 2321 q\001
4 0 0 50 -1 -1 12 0.0000 4 90 60 7295 1954 r\001
