#FIG 3.2  Produced by xfig version 3.2.5b
Landscape
Center
Metric
A4      
100.00
Single
-2
1200 2
1 3 0 3 0 7 50 -1 -1 0.000 1 0.0000 5175 3105 1036 1036 5175 3105 6211 3105
2 2 0 1 0 7 50 -1 -1 0.000 0 0 -1 0 0 5
	 4512 2325 5862 2325 5862 3855 4512 3855 4512 2325
2 2 0 1 0 7 50 -1 -1 0.000 0 0 -1 0 0 5
	 4942 2105 5462 2105 5462 4105 4942 4105 4942 2105
2 2 0 1 0 7 50 -1 -1 0.000 0 0 -1 0 0 5
	 4272 2635 6092 2635 6092 3575 4272 3575 4272 2635
